./pre_img/Chi/frame44.png 105 544 765 1466
./pre_img/Chi/frame88.png 124 572 770 1445
./pre_img/Chi/frame36.png 91 544 764 1478
./pre_img/Chi/frame91.png 105 546 775 1445
./pre_img/Chi/frame137.png 127 725 747 1544
